using TestRun0.txt
6.0
using TestRun1.txt
2.0
using TestRun10.txt
8.0
using TestRun100.txt
2.0
using TestRun101.txt
2.0
using TestRun102.txt
8.0
using TestRun103.txt
4.0
using TestRun104.txt
6.0
using TestRun105.txt
10.0
using TestRun106.txt
2.0
using TestRun107.txt
4.0
using TestRun108.txt
2.0
using TestRun109.txt
10.0
using TestRun11.txt
4.0
using TestRun110.txt
4.0
using TestRun111.txt
4.0
using TestRun112.txt
8.0
using TestRun113.txt
6.0
using TestRun114.txt
6.0
using TestRun115.txt
0.0
using TestRun116.txt
0.0
using TestRun117.txt
0.0
using TestRun118.txt
10.0
using TestRun119.txt
4.0
using TestRun12.txt
10.0
using TestRun120.txt
10.0
using TestRun121.txt
8.0
using TestRun122.txt
12.0
using TestRun123.txt
2.0
using TestRun124.txt
8.0
using TestRun125.txt
6.0
using TestRun126.txt
10.0
using TestRun127.txt
8.0
using TestRun128.txt
2.0
using TestRun129.txt
4.0
using TestRun13.txt
8.0
using TestRun130.txt
6.0
using TestRun131.txt
6.0
using TestRun132.txt
4.0
using TestRun133.txt
10.0
using TestRun134.txt
4.0
using TestRun135.txt
0.0
using TestRun136.txt
6.0
using TestRun137.txt
4.0
using TestRun138.txt
2.0
using TestRun139.txt
8.0
using TestRun14.txt
8.0
using TestRun140.txt
6.0
using TestRun141.txt
8.0
using TestRun142.txt
8.0
using TestRun143.txt
2.0
using TestRun144.txt
6.0
using TestRun145.txt
10.0
using TestRun146.txt
6.0
using TestRun147.txt
0.0
using TestRun148.txt
6.0
using TestRun149.txt
4.0
using TestRun15.txt
10.0
using TestRun150.txt
6.0
using TestRun151.txt
4.0
using TestRun152.txt
4.0
using TestRun153.txt
2.0
using TestRun154.txt
6.0
using TestRun155.txt
4.0
using TestRun156.txt
8.0
using TestRun157.txt
4.0
using TestRun158.txt
8.0
using TestRun159.txt
4.0
using TestRun16.txt
6.0
using TestRun160.txt
10.0
using TestRun161.txt
4.0
using TestRun162.txt
8.0
using TestRun163.txt
8.0
using TestRun164.txt
6.0
using TestRun165.txt
12.0
using TestRun166.txt
8.0
using TestRun17.txt
4.0
using TestRun18.txt
8.0
using TestRun19.txt
4.0
using TestRun2.txt
4.0
using TestRun20.txt
4.0
using TestRun21.txt
4.0
using TestRun22.txt
8.0
using TestRun23.txt
6.0
using TestRun24.txt
6.0
using TestRun25.txt
6.0
using TestRun26.txt
2.0
using TestRun27.txt
0.0
using TestRun28.txt
4.0
using TestRun29.txt
6.0
using TestRun3.txt
4.0
using TestRun30.txt
6.0
using TestRun31.txt
4.0
using TestRun32.txt
8.0
using TestRun33.txt
6.0
using TestRun34.txt
6.0
using TestRun35.txt
8.0
using TestRun36.txt
8.0
using TestRun37.txt
2.0
using TestRun38.txt
4.0
using TestRun39.txt
8.0
using TestRun4.txt
10.0
using TestRun40.txt
6.0
using TestRun41.txt
6.0
using TestRun42.txt
8.0
using TestRun43.txt
6.0
using TestRun44.txt
8.0
using TestRun45.txt
2.0
using TestRun46.txt
6.0
using TestRun47.txt
4.0
using TestRun48.txt
6.0
using TestRun49.txt
4.0
using TestRun5.txt
12.0
using TestRun50.txt
4.0
using TestRun51.txt
10.0
using TestRun52.txt
8.0
using TestRun53.txt
2.0
using TestRun54.txt
6.0
using TestRun55.txt
10.0
using TestRun56.txt
2.0
using TestRun57.txt
8.0
using TestRun58.txt
6.0
using TestRun59.txt
4.0
using TestRun6.txt
8.0
using TestRun60.txt
6.0
using TestRun61.txt
4.0
using TestRun62.txt
6.0
using TestRun63.txt
6.0
using TestRun64.txt
6.0
using TestRun65.txt
2.0
using TestRun66.txt
8.0
using TestRun67.txt
2.0
using TestRun68.txt
12.0
using TestRun69.txt
10.0
using TestRun7.txt
8.0
using TestRun70.txt
8.0
using TestRun71.txt
4.0
using TestRun72.txt
8.0
using TestRun73.txt
10.0
using TestRun74.txt
6.0
using TestRun75.txt
4.0
using TestRun76.txt
8.0
using TestRun77.txt
4.0
using TestRun78.txt
6.0
using TestRun79.txt
12.0
using TestRun8.txt
6.0
using TestRun80.txt
12.0
using TestRun81.txt
0.0
using TestRun82.txt
4.0
using TestRun83.txt
6.0
using TestRun84.txt
4.0
using TestRun85.txt
6.0
using TestRun86.txt
8.0
using TestRun87.txt
4.0
using TestRun88.txt
2.0
using TestRun89.txt
4.0
using TestRun9.txt
2.0
using TestRun90.txt
0.0
using TestRun91.txt
10.0
using TestRun92.txt
6.0
using TestRun93.txt
6.0
using TestRun94.txt
2.0
using TestRun95.txt
4.0
using TestRun96.txt
6.0
using TestRun97.txt
4.0
using TestRun98.txt
4.0
using TestRun99.txt
2.0
