"@hiry: thx ! ;)"
"aplause!!"
"@deadchannel: ;)"
"@olive-noize: ;)"
"Aille aille BIG up bro"
"hello nice shit dude i like it i make it to lissen to as you interested"
"@psy-m2: cimer !!!"
"Excellent !!!!!!!!!!!!!!!!!!!!!!!!!!!!!!!!!!!!!!!!!!!!!!!!!!!!!!"
"@loonytoonz: thx ;)"
"@dr-mad-krs6tem: bangin mate"
"@deathcut-krs6tem-ftp6tem: cimer deathcut !! ;)"
"@deadchannel: thanks !! ;)"
"HOT!!! slammin beatz"
"DOPE KICK!!!!!! yeaaaah!!!!"
"bonne track :)"
"@gimboy: cimer L'FAB ! ;)"
"bien bon dark comme j aime"
