"nice!!",1
"Tuuune!",1
"sweet stuff",1
"GREAT",1
"damn man you got a real nice style! diggin it alot!",1
"Nice deep feeling made here, bro! Great for a groovy night set",1
"Nice track! ",1
"I'm working on some FrenchHouse Tracks my self I'll let you know when I'm finished with it! ;)",3
"Nice one! Thanks for sharing in the group! ",1
"Sweet Work tASk!!! Love it!! ;D",1
"<3!",1
"",3
"music to my ears! nice track",1
"que buen sidechain te aventaste! (y)",3
