"very nice piece of work",1
"temazooooo!!! ;)",3
"Yeah!!! ",1
"Cool.",1
"Solid !! Nice :}",1
"@3phazegenerator: !",3
"Rarrrr",3
"@raftek: !",3
"Gr8 work",1
"@user4810200: !",3
"@renereiter: !",3
"good stuff",1
"BIG Tuneeeeeeeeee!!!!!!!!! wicket track!",1
"@unbrokenbeat-recordings: !",3
"this is serious stuff! you two are unstoppable!",1
"@vlado87: !",3
"@acidchochi: !",3
"@gehirntech: !",3
"@djziff: !",3
"awesome track",1
"Go! :D",1
"Get more views + feedback by posting your mix here: https://www.facebook.com/pages/Techno/312732885436545 !",3
"Banging tune mate :)",1
