"@zenfx_b-o-v: contenta che ti piace sta traccia !! grazie",3
"@dennisfenselau: MERCIIIIII BEAUCOUP 8",3
"@zenfx_b-o-v: merciiii",3
"POTENZA CHE CRESCE...",3
"FANTASTICA...",3
"MI PIACE L'INTRO...",3
"very nice and deep like da so much! thinking of Detroit Techno.",1
"@bryan-talbot: merci Bryan ;-)",3
"love the drums",1
"Very nice!!",1
